=============================================================
Interval No. 810
, Time = 840 to 184120968Start from:2007-01-01 13:13:30.915688
Stop    at:2007-01-01 13:14:00.915688

Total Interval time: 30 second
=============================================================
threshold = 759163.748664
  1. 149.34.212.145	value = 3944104.181473
  2. 133.208.25.108	value = 3360163.694357
  3. 215.37.127.61	value = 1578107.643656
  4. 64.253.224.124	value = 953117.903816
  5. 215.37.121.18	value = 941141.204983
