=============================================================
Interval No. 120
, Time = 150 to 146989072Start from:2007-01-01 13:02:00.915688
Stop    at:2007-01-01 13:02:30.915688

Total Interval time: 30 second
=============================================================
threshold = 1023919.061879
  1. 133.142.205.66	value = 4971923.319397
  2. 133.208.25.108	value = 4499069.889055
  3. 164.89.144.143	value = 4143246.363516
  4. 87.168.165.200	value = 1705389.966043
  5. 149.34.212.198	value = 1496671.596464
