=============================================================
Interval No. 870
, Time = 900 to 185611808Start from:2007-01-01 13:14:30.915688
Stop    at:2007-01-01 13:15:00.915688

Total Interval time: 30 second
=============================================================
threshold = 1544373.826619
