=============================================================
Interval No. 540
, Time = 570 to 170644112Start from:2007-01-01 13:09:00.915688
Stop    at:2007-01-01 13:09:30.915688

Total Interval time: 30 second
=============================================================
threshold = 112828.853319
  1. 164.89.144.143	value = 3717954.502548
  2. 81.46.148.177	value = 3607215.123051
  3. 145.65.71.11	value = 2325480.007599
  4. 215.37.121.18	value = 2136325.735069
  5. 215.37.127.61	value = 1686422.005097
  6. 215.37.120.89	value = 1406201.953459
