=============================================================
Interval No. 360
, Time = 390 to 160947416Start from:2007-01-01 13:06:00.915688
Stop    at:2007-01-01 13:06:30.915688

Total Interval time: 30 second
=============================================================
threshold = 74610.637477
  1. 133.142.205.66	value = 5087554.490478
  2. 215.37.121.18	value = 1621754.222648
  3. 197.247.88.98	value = 1030436.177053
  4. 164.89.55.155	value = 827910.996475
  5. 202.189.50.86	value = 815206.108753
  6. 149.34.17.106	value = 795933.520600
