=============================================================
Interval No. 720
, Time = 750 to 180042328Start from:2007-01-01 13:12:00.915688
Stop    at:2007-01-01 13:12:30.915688

Total Interval time: 30 second
=============================================================
threshold = 114241.800796
  1. 149.34.212.199	value = 4979907.837626
  2. 133.142.205.66	value = 3844873.199118
  3. 164.89.55.147	value = 2032958.403867
  4. 149.131.223.215	value = 1671680.378536
  5. 194.214.227.61	value = 1322931.735572
  6. 215.37.121.18	value = 1183593.483306
