=============================================================
Interval No. 780
, Time = 810 to 182623848Start from:2007-01-01 13:13:00.915688
Stop    at:2007-01-01 13:13:30.915688

Total Interval time: 30 second
=============================================================
threshold = 1129912.191142
Total = 5, False Negative = 0, False Positive = 0

False Negative IP
-------------------------------------------------------------

False Positive IP
-------------------------------------------------------------

IP Detect list
-------------------------------------------------------------
  1. 149.34.212.145	value = 4041630.611842
  2. 133.208.25.108	value = 3764613.572146
  3. 145.65.71.11	value = 1325772.973842
  4. 87.168.165.200	value = 1237162.911559
  5. 215.37.127.61	value = 1162815.694945
