=============================================================
Interval No. 360
, Time = 390 to 161417768Start from:2007-01-01 13:06:00.915688
Stop    at:2007-01-01 13:06:30.915688

Total Interval time: 30 second
=============================================================
threshold = 189915.766505
  1. 200.147.0.164	value = 13343029.769402
  2. 164.89.55.232	value = 5777954.901639
  3. 215.37.124.41	value = 2348840.253365
  4. 39.247.194.155	value = 2187050.315928
  5. 215.37.127.61	value = 1194639.029939
  6. 145.65.89.101	value = 1127338.976104
  7. 149.34.212.199	value = 640085.106296
  8. 197.36.78.253	value = 638312.052187
  9. 214.138.14.189	value = 562709.744987
 10. 145.65.117.64	value = 496532.725425
 11. 214.138.179.238	value = 479986.220466
 12. 80.174.160.181	value = 468411.867244
 13. 149.34.23.96	value = 381468.213935
 14. 87.168.165.200	value = 372756.948088
 15. 202.162.224.233	value = 329760.635945
 16. 164.89.55.146	value = 321145.373028
 17. 194.40.198.61	value = 291183.458663
 18. 133.208.154.172	value = 287906.358654
 19. 149.131.223.201	value = 264223.635914
 20. 59.194.106.21	value = 262946.596942
 21. 215.37.121.32	value = 253138.297617
 22. 166.47.45.169	value = 248359.151769
 23. 85.14.212.96	value = 200870.702536
