=============================================================
Interval No.  60
, Time = 90 to 144953232Start from:2007-01-01 13:01:00.915688
Stop    at:2007-01-01 13:01:30.915688

Total Interval time: 30 second
=============================================================
threshold = 412926.341576
  1. 164.89.55.232	value = 20666091.287576
  2. 133.208.25.108	value = 8788943.492457
  3. 149.173.188.128	value = 7068224.313608
  4. 214.138.179.238	value = 5570669.611866
  5. 133.208.154.172	value = 5203746.080915
  6. 215.37.121.18	value = 4248780.271004
  7. 215.37.124.41	value = 3855924.281991
  8. 215.13.122.90	value = 3832636.571306
  9. 215.37.127.61	value = 3764071.478866
 10. 214.130.122.11	value = 2953762.750206
 11. 87.171.27.121	value = 2524389.646779
 12. 202.189.50.86	value = 2417042.704143
 13. 219.41.222.233	value = 2324002.864793
 14. 149.34.212.199	value = 1954866.266305
 15. 87.197.226.146	value = 1936245.698050
 16. 87.197.228.186	value = 1916755.103244
 17. 39.231.23.138	value = 1910772.587339
 18. 214.138.14.189	value = 1623972.168218
 19. 214.130.122.83	value = 1579286.471185
 20. 164.89.55.147	value = 1518101.937315
 21. 215.37.120.54	value = 1338123.444807
 22. 193.210.23.106	value = 1171948.373547
 23. 133.142.205.66	value = 878366.414136
 24. 56.188.144.41	value = 691655.716178
 25. 164.89.55.146	value = 686935.905474
 26. 193.156.126.7	value = 660379.761711
 27. 215.37.113.209	value = 551249.431318
 28. 84.40.136.23	value = 428725.692190
