=============================================================
Interval No. 120
, Time = 150 to 147945520Start from:2007-01-01 13:02:00.915688
Stop    at:2007-01-01 13:02:30.915688

Total Interval time: 30 second
=============================================================
threshold = 107685.438750
  1. 149.34.212.199	value = 7641955.701773
  2. 87.168.165.200	value = 2255985.335002
  3. 164.89.55.232	value = 2032271.507797
  4. 64.253.224.124	value = 1682647.838130
  5. 133.208.154.172	value = 1217975.657460
  6. 149.34.46.39	value = 909388.240120
  7. 214.138.179.238	value = 591575.541246
  8. 215.37.124.41	value = 265654.594928
  9. 149.173.188.128	value = 255600.288095
 10. 202.189.50.86	value = 213118.991668
 11. 145.65.117.64	value = 182529.058138
 12. 84.40.136.23	value = 178444.933500
 13. 81.46.148.177	value = 171125.710135
 14. 74.107.7.59	value = 156570.265938
 15. 211.163.114.233	value = 146060.945219
 16. 151.34.5.105	value = 143492.866848
 17. 164.89.100.87	value = 140225.767144
 18. 203.37.181.74	value = 122113.214393
 19. 206.56.22.24	value = 119878.146184
